{
	"success":true,
	"statusCode":1000,
	"message":"成功",
	"data":{
		"pageSize":10,
		"pageNum":1,
		"totalCount":78137,
		"pageCount":7814,
		"data":[
			{
				"attention":true,
				"body":"　　\n近日，海口市美兰区人民法院依法审结海南省动物卫生监督所原所长符莲萍受贿案并作出一审宣判，对被告人符莲萍以受贿罪判处有期徒刑4年，并处罚金人民币25万元；\n对被告人符莲萍已退出的赃款人民币80万元，予以没收上缴国库。　　\n经审理查明，2009年至2013年，符莲萍利用担任省动监所所长职务上的便利，以及本人职权或者地位形成的便利条件，为相关单位和个人在办理引入省外动物销售、承揽工程项目、款项拨付、采购设备等事项上谋取利益。\n2009年2月至2013年底，符莲萍先后多次非法收受黎某、陈某等8人给予的现金共计人民币80万元。\n案发后，被告人符莲萍已退还全部赃款。　　\n法院经审理认为，被告人符莲萍身为国家机关工作人员，利用职务上的便利或本人职权和地位形成的便利条件，为他人谋取不正当利益，非法收受他人现金共计人民币80万元，数额巨大，其行为已构成受贿罪。\n鉴于被告人符莲萍具有到案后如实供述犯罪事实、全额退出赃款、认罪悔罪、愿意接受处罚、主动交代办案机关尚未掌握的受贿犯罪事实等从轻处罚情节，依法可从轻从宽处罚。\n法院遂依法作出上述判决。原标题：受贿80万元！海南省动物卫生监督所原所长一审获刑4年",
				"classify":"行贿受贿",
				"downloadUrl":[],
				"emotional":"负面",
				"heat":"2.00",
				"interventionDepartment":"[]",
				"interventionDepartmentSet":[],
				"mediaType":"其他新闻媒体",
				"negativeIndex":"13.00",
				"picRowkey":"",
				"published":"2020-01-07",
				"repeatTimes":1,
				"reprintTimes":0,
				"sentimentId":"b4164491a38cd413af0fa01afe42a4e8",
				"simhash":"2940134929690506091",
				"source":"南海网",
				"subjectInvolved":"[]",
				"subjectInvolvedSet":[],
				"tagEventType":"[\"其他\"]",
				"tagEventTypeSet":["其他"],
				"title":"受贿80万元！海南省动物卫生监督所原所长一审获刑4年",
				"website":"http://www.hinews.cn/news/system/2020/01/07/032250718.shtml"
			},
			{
				"attention":false,
				"body":"【海南今年治超将加强货运源头监管 货车超限超载将影响信用】6日，记者从海口交通执法部门获悉，针对海口“12·31”道路交通事故，已对涉事混凝土公司下达责令停业整顿通知。2020年，海口交通执法部门治超工作将进一步加强货运源头的监管力度。将会同交警、公路等部门，加强矿山、水泥厂、港口、物流园...全文： http://m.weibo.cn/1750353914/4458043565286985 ​",
				"classify":"其他",
				"downloadUrl":[],
				"emotional":"中性",
				"heat":"2.02",
				"interventionDepartment":"[]",
				"interventionDepartmentSet":[],
				"mediaType":"新浪微博",
				"negativeIndex":"6.00",
				"picRowkey":"",
				"published":"2020-01-07",
				"repeatTimes":1,
				"reprintTimes":1,
				"sentimentId":"4458043565286985",
				"simhash":"1358891781492111592",
				"source":"海南交通广播",
				"subjectInvolved":"[]",
				"subjectInvolvedSet":[],
				"tagEventType":"[\"交通领域失信\"]",
				"tagEventTypeSet":["交通领域失信"],
				"title":"海南今年治超将加强货运源头监管 货车超限超载将影响信用",
				"website":"https://weibo.com/1750353914/IolYEmbnX"
			},
			{
				"attention":true,
				"body":"波司登公司(03998)公告在FY19/20前九个月中(2019/4/1-2019/12/31)公司波司登品牌羽绒服业务累计零售金额增长超过30%。同时品牌羽绒服业务下的其他品牌零售金额增长超过40%。公司品牌羽绒服业务在线上、线下均表现出快速增长趋势。\r\n在19年入冬以来南方天气明显偏暖的情况下，波司登旗下的品牌羽绒服业务依旧保持了高速的增长态势，充分显示出公司在品牌、产品、渠道、和零售运营上的全面升级，正在被消费者认可。\r\n公司的品牌重塑计划在FY19/20持续推进，9月米兰时装周设计师系列发布会邀请名模Kendal Jenner走秀、Nicole\r\nKidman观秀，同时聘请“带货女王”杨幂成为设计师系列代言人、10月登峰造极高端系列发布会反响强烈、11月与爱马仕设计师高缇耶在上海隆重推出联名款羽绒服、并连续与包括Tom\r\nHiddleston、Scarlett Johansson等大牌欧美演员合作实现产品露出，全方位提升品牌在消费者心目中的形象。\r\n12月7日作为第二届海南岛国际电影节活动之一的“极寒·巅峰上的时尚——波司登&国际时装大师联名秀”在海南三亚上演，波司登联合国际时尚设计师Kenzo\r\nTakada(高田贤三)与EnnioCapasa设计的40款时尚羽绒服精彩亮相，同时在12月23日再度联合天猫启动超级品牌日活动。从双十一数据可以看到，波司登主品牌羽绒服消费客单价继续提升，同时年轻消费者的占比也迅速提升。\r\n公司于12月20日公布股份回购计划，将以从经营活动取得的可动用现金为回购行为提供资金，回购股份数量上限为2019年8月26日已发行股份数量的10%，进一步表明公司对于自身业务发展前景的信心。\r\n盈利预测及投资建议：在暖冬下，波司登逆势保持较高的收入增长，我们认为这体现出波司登品牌势能的提升，以及随着渠道与产品的持续升级，消费者对其认可度的持续提升。在这样的基础上，考虑到2021春节较晚，元旦与春节期间的销售旺季较2020年更长，服装行业有望迎来业绩大年，我们对波司登未来的业绩增长依旧抱有充足信心。我们维持FY20/FY21/FY22净利润13.4亿/17.4亿/21.3亿的业绩预期，同比增长36.9%/29.6%/22.3%，对应PE\r\n20X/16X/13X，维持“买入”评级。",
				"classify":"其他",
				"downloadUrl":[],
				"emotional":"正面",
				"heat":"2.00",
				"interventionDepartment":"[]",
				"interventionDepartmentSet":[],
				"mediaType":"其他新闻媒体",
				"negativeIndex":"0",
				"picRowkey":"",
				"published":"2020-01-07",
				"repeatTimes":1,
				"reprintTimes":0,
				"sentimentId":"a54b7be9a468a503c4ed9ee0a50097a9",
				"simhash":"11505261269651881141",
				"source":"中国服装网",
				"subjectInvolved":"[]",
				"subjectInvolvedSet":[],
				"tagEventType":"[\"其他\"]",
				"tagEventTypeSet":["其他"],
				"title":"波司登逆势提升 品牌受到消费者认可",
				"website":"http://news.efu.com.cn/newsview-1292208-1.html"
			},
			{
				"attention":false,
				"body":"【场面震撼！全网#首个扫黑除恶现场vlog#来了】1月2日，@海南警方 发布全网首个扫黑除恶现场vlog。涉嫌故意伤害（致死）、强奸、抢劫等罪的“黑老大”张清及其团伙落网画面曝光，警方抓获犯罪嫌疑人58名，现场扣押现金280余万元。戳视频，了解扫黑除恶这场“战役”！http://t.cn/AisAd9Op ​",
				"classify":"其他",
				"downloadUrl":[],
				"emotional":"负面",
				"heat":"28.00",
				"interventionDepartment":"[]",
				"interventionDepartmentSet":[],
				"mediaType":"新浪微博",
				"negativeIndex":"10.00",
				"picRowkey":"",
				"published":"2020-01-07",
				"repeatTimes":10,
				"reprintTimes":1,
				"sentimentId":"4458031381075971",
				"simhash":"14368109629302907554",
				"source":"法治金堂",
				"subjectInvolved":"[]",
				"subjectInvolvedSet":[],
				"tagEventType":"[\"其他\"]",
				"tagEventTypeSet":["其他"],
				"title":"场面震撼！全网#首个扫黑除恶现场vlog#来了",
				"website":"https://weibo.com/2434097414/IolF04vUn"
			},
			{
				"attention":true,
				"body":"#海南新闻# 【采矿开赌场敲诈勒索 昌江颜广标涉黑团伙37人被捕啦！】　近日从昌江黎族自治县公安局获悉，倍受社会关注的昌江颜广标涉黑团伙37名犯罪嫌疑人日前已被执行逮捕。2019年5月，公安机关在侦办黄鸿发犯罪团伙案件中，发现在以押人员颜广标为首的涉黑团伙在乌烈地区涉嫌非法采矿，以及开设赌场...全文： http://m.weibo.cn/2517950371/4458029846418639 ​",
				"classify":"其他",
				"downloadUrl":[],
				"emotional":"负面",
				"heat":"4.00",
				"interventionDepartment":"[]",
				"interventionDepartmentSet":[],
				"mediaType":"新浪微博",
				"negativeIndex":"10.00",
				"picRowkey":"",
				"published":"2020-01-07",
				"repeatTimes":1,
				"reprintTimes":1,
				"sentimentId":"4458029846418639",
				"simhash":"9723982788217173505",
				"source":"新浪海南",
				"subjectInvolved":"[]",
				"subjectInvolvedSet":[],
				"tagEventType":"[\"其他\"]",
				"tagEventTypeSet":["其他"],
				"title":"采矿开赌场敲诈勒索 昌江颜广标涉黑团伙37人被捕啦！",
				"website":"https://weibo.com/2517950371/IolCwqVMr"
			},
			{
				"attention":true,
				"body":"党的十八大以来，党中央直面党内存在的种种问题和弊端，从制定和执行中央八项规定破题，解决了新形势下作风建设抓什么、怎么抓的问题，推动了全面从严治党，推动了党风、政风、社风好转\r\n广大党员干部唯有拧紧作风螺丝、上紧纪律发条，才能在新时代有新气象、新作为\r\n不久前，中央纪委公开曝光了5起违反中央八项规定精神问题，公布2019年11月查处问题5753起，处理8005人，给予党纪政务处分5779人。从不担当不作为到违规接受旅游安排和收受礼品，从违规组织公款吃喝到违规发放津补贴，一份每年数次的典型曝光，一份每月通报的数据，持续释放纠“四风”一刻不松的强烈信号，展现一种将自我革命进行到底的精神。\r\n2012年12月4日，中共中央政治局召开会议，审议通过了中央政治局关于改进工作作风、密切联系群众的八项规定，一场激浊扬清的风气巨变从这一天开启，自此一以贯之、驰而不息。党的十八大以来，党中央直面党内存在的种种问题和弊端，从制定和执行中央八项规定破题，解决了新形势下作风建设抓什么、怎么抓的问题，推动了全面从严治党，推动了党风、政风、社风好转。党的十九大之后，党中央又针对新情况新问题，修订了中央八项规定实施细则，继续落实中央八项规定精神。中央八项规定已经成为全面从严治党的重要抓手，成为改变中国政治生态和社会面貌的重要举措，为实现中华民族伟大复兴中国梦提供了有力保障。\r\n中央八项规定持续激荡中国新气象，关键在于以习近平同志为核心的党中央以上率下的示范效应。朴素的家常便饭、严格的“四菜一汤”……在国家博物馆，一张习近平总书记2012年考察河北省阜平县时的晚餐菜单，吸引了众多观众的目光。无论是国内考察调研还是国外出访活动，习近平总书记以行动作号令、以身教为榜样，带头严格执行中央八项规定，为全党树立起典范。中央其他领导同志同样身体力行、以身作则。实践证明，坚持以上率下、发挥示范效应，带动作风建设深入推进，是全面从严治党的一条重要经验。\r\n中央八项规定静水深流、成风化俗，贵在始终坚持揪住老问题、紧盯新动向。从各地通报内容看，一些“老问题”树倒根存。截至2019年12月4日，全国查处31.7万起违反中央八项规定精神问题，违规发放福利、违规公款吃喝、大办婚丧喜庆等五类表现，占比达70.2%。一些“新动向”尤须警惕。比如海南一国有企业与两家餐饮企业签订“试菜费”协议，作为个人招待的定点场所。习近平总书记强调，“中央八项规定不是五年、十年的规定，而是长期有效的铁规矩、硬杠杠。”作风建设永远在路上，任何松口气、歇歇脚的幻想，都是不切实际的。广大党员干部唯有拧紧作风螺丝、上紧纪律发条，才能在新时代有新气象、新作为。\r\n中央八项规定之所以能以好作风助力开辟“中国之治”新境界，一个重要原因在于通过制度形成刚性约束。作风建设每向前推进一步，制度层面就加固一层，灵魂深处便净化一遍。比如新修订的《中国共产党问责条例》，明确将落实中央八项规定及其实施细则精神不力列为问责情形。同时，各地区各部门深入查找制度空白、短板和“模糊地带”，为落实中央八项规定精神完善配套措施。再如，各地区各部门结合主题教育专项整治工作，把落实中央八项规定精神贯穿主题教育全过程，对特权现象“穷追猛打”，对特权思想“刮骨疗毒”。可以说，通过不断的制度淬火，八项规定产生的效用将更持久。\r\n在庆祝新中国成立70周年群众游行中，“从严治党”方阵彩车上的“中央八项规定精神”元素格外引人注目；国家统计局2019年11月进行的民情民意电话调查显示，96.5%的受调查对象满意中央八项规定及其实施细则精神贯彻执行的总体成效。这是亿万人民发自内心的认可。面向未来，我们需要始终不忘初心、牢记使命，持续发力，再创新绩，让中央八项规定这张“金色名片”永远熠熠生辉。",
				"classify":"其他",
				"downloadUrl":[],
				"emotional":"中性",
				"heat":"4.00",
				"interventionDepartment":"[]",
				"interventionDepartmentSet":[],
				"mediaType":"其他新闻媒体",
				"negativeIndex":"6.00",
				"picRowkey":"",
				"published":"2020-01-07",
				"repeatTimes":2,
				"reprintTimes":0,
				"sentimentId":"64736825436973460c12189c6523730a",
				"simhash":"8092929024808380779",
				"source":"景德镇在线",
				"subjectInvolved":"[]",
				"subjectInvolvedSet":[],
				"tagEventType":"[\"其他\"]",
				"tagEventTypeSet":["其他"],
				"title":"让“金色名片”永远熠熠生辉",
				"website":"http://www.jdzol.com/2020/wangpin_0107/82361.html"
			},
			{
				"attention":true,
				"body":"记者从海口海关获悉，1月3日，海口海关所属海口美兰机场海关以“告知承诺”方式办理发放了关区首张“国境口岸卫生许可证”。据介绍，实施“告知承诺”是海口海关落实海关总署在全国自由贸易试验区范围内开展“证照分离”改革试点的举措之一，公共场所类“国境口岸卫生许可证”申请人承诺经营场所选址、卫生设施、从业人员合格证明等均已符合许可条件的，海关经形式审查后当场作出审批决定、当场发证。改革后，企业最快 1 天之内就可获得公共场所类“国境口岸卫生许可证”，减少企业办证奔波，大幅提升企业满意度和获得感。为保证改革事项高效落实，海口海关所属海口美兰机场海关积极向企业开展政策宣传，为企业详细解读新政要求，耐心指导企业申报，最大限度压缩企业办证时间，使改革红利真正惠及广大企业。接下来，海口海关将继续落实“放管服”改革举措，进一步提高行政监管效能，推动海南自贸区“证照分离”改革不断深化，努力为海南自贸区自贸港建设营造更加便利的营商环境。",
				"classify":"其他",
				"downloadUrl":[],
				"emotional":"正面",
				"heat":"2.00",
				"interventionDepartment":"[]",
				"interventionDepartmentSet":[],
				"mediaType":"其他新闻媒体",
				"negativeIndex":"0",
				"picRowkey":"",
				"published":"2020-01-07",
				"repeatTimes":1,
				"reprintTimes":0,
				"sentimentId":"3bfa56f8105d08ab8ca8d923079c5754",
				"simhash":"17196959036182936203",
				"source":"海口网",
				"subjectInvolved":"[]",
				"subjectInvolvedSet":[],
				"tagEventType":"[\"营商环境\"]",
				"tagEventTypeSet":["营商环境"],
				"title":"海口海关以“告知承诺”方式发放首张“国境口岸卫生许可证”",
				"website":"http://www.hkwb.net/news/content/2020-01/07/content_3835817.htm"
			},
			{
				"attention":false,
				"body":"【深夜出击！海南海警局查获102吨走私冻品 包括鸡翅鸡爪等种类】1月4日，海南海警局在海南省澄迈县东水港附近海域，查获一起涉嫌走私冻品案件：查扣涉案船舶1艘、货车1辆，抓获涉案人员21名，查获疑似走私冻品约102吨，包括鸡爪、鸡翅等多种类。目前，案件正在进一步侦办中。（记者良子）...全文： http://m.weibo.cn/3204782330/4457840846182264 ​",
				"classify":"制假售假",
				"downloadUrl":[],
				"emotional":"负面",
				"heat":"5.00",
				"interventionDepartment":"[]",
				"interventionDepartmentSet":[],
				"mediaType":"新浪微博",
				"negativeIndex":"12.00",
				"picRowkey":"",
				"published":"2020-01-06",
				"repeatTimes":1,
				"reprintTimes":0,
				"sentimentId":"4457840846182264",
				"simhash":"13903121441503666823",
				"source":"海南日报",
				"subjectInvolved":"[]",
				"subjectInvolvedSet":[],
				"tagEventType":"[\"走私犯罪\"]",
				"tagEventTypeSet":["走私犯罪"],
				"title":"深夜出击！海南海警局查获102吨走私冻品 包括鸡翅鸡爪等种类",
				"website":"https://weibo.com/3204782330/IogHGpWhW"
			},
			{
				"attention":false,
				"body":"【场面震撼！海南公安扫黑除恶现场！】#平安2020# 1月2日，@海南警方 发布全网首个扫黑除恶现场vlog。涉嫌故意伤害（致死）、强奸、抢劫等罪的“黑老大”张清及其团伙落网画面曝光，警方抓获犯罪嫌疑人58名，现场扣押现金280余万元。戳视频，了解扫黑除恶这场“战役”！http://t.cn/AisAd9Op ​",
				"classify":"其他",
				"downloadUrl":[],
				"emotional":"负面",
				"heat":"13.00",
				"interventionDepartment":"[]",
				"interventionDepartmentSet":[],
				"mediaType":"新浪微博",
				"negativeIndex":"10.00",
				"picRowkey":"",
				"published":"2020-01-06",
				"repeatTimes":5,
				"reprintTimes":2,
				"sentimentId":"4457771388831468",
				"simhash":"9756425397614535330",
				"source":"平安中山",
				"subjectInvolved":"[]",
				"subjectInvolvedSet":[],
				"tagEventType":"[\"其他\"]",
				"tagEventTypeSet":["其他"],
				"title":"场面震撼！海南公安扫黑除恶现场！",
				"website":"https://weibo.com/1719916573/IoeTEB3t2"
			},
			{
				"attention":false,
				"body":"#茂名爆料# 【男子在海口走私柴油 逃匿两年潜回茂名落网】茂名市茂南区一名男子伙同他人在海南涉嫌走私柴油逃税，被海口市海关缉私局侦查处上网追逃。畏罪潜逃2年多之后，今年1月1日，该男子被茂名市公安局茂南分局便衣队员在茂名市区将其抓获归案。http://t.cn/AisJc16A ​",
				"classify":"其他",
				"downloadUrl":[],
				"emotional":"负面",
				"heat":"3.00",
				"interventionDepartment":"[]",
				"interventionDepartmentSet":[],
				"mediaType":"新浪微博",
				"negativeIndex":"10.00",
				"picRowkey":"",
				"published":"2020-01-06",
				"repeatTimes":1,
				"reprintTimes":1,
				"sentimentId":"4457780628977946",
				"simhash":"12837472025787524882",
				"source":"茂名网微博",
				"subjectInvolved":"[]",
				"subjectInvolvedSet":[],
				"tagEventType":"[\"偷税漏税/虚开发票\", \"走私犯罪\"]",
				"tagEventTypeSet":["走私犯罪","偷税漏税/虚开发票"],
				"title":"男子在海口走私柴油 逃匿两年潜回茂名落网",
				"website":"https://weibo.com/2014046445/Iof8yBFzA"
			}
		]
	}
}